Keys — key_chronology • osmtags
…
# Only retrieve amenities that are explicitly buildings
key_combinations("amenity", query = "building")
#> # A tibble: 429 × 4
#>    other_key                 together_count to_fraction from_fraction
#>    <chr>                              <int>       <dbl>         <dbl>
#>  1 WroclawGIS:building:ID                 1           0          0.5 
#>  2 addr:building_number                   1           0          1   
#>  3 addr:buildingnumber                    1           0          0.25
#>  4 building:1750-1831                     1           0          1   
#>  5 building:1865-1986                     1           0          1   
#>  6 building:1906-1965                     1           0          1   
#>  7 building:1912-1995                     1           0          1   
#>  8 building:1985--2021-08-03              1           0          1   
#>  9 building:1994-2010                     1           0          1   
#> 10 building:2010-                         1           0          1   
#> # ℹ 419 more rows

# Only retrieve combinations for amenities that are mapped as relations
key_combinations("amenity", filter = "relations")
#> # A tibble: 4,569 × 4
#>    other_key             together_count to_fraction from_fraction
#>    <chr>                          <int>       <dbl>         <dbl>
#>  1 2016olympicgames                   1           0        0.0714
#>  2 2016olympicgames:zone              1           0        0.167 
#>  3 ACTIVO                             1           0        0.5   
#>  4 AIN                                1           0        0.333 
#>  5 BLR:SiteNameAddress                1           0        1     
#>  6 BLfD:criteria                      1           0        0.0172
#>  7 CASUD:NOM                          1           0        1     
#>  8 CASUD:TYPE                         1           0        1     
#>  9 CLC:details                        1           0        0.333 
#> 10 CLC:explanation                    1           0        0.0004
#> # ℹ 4,559 more rows
…
# Retrieve all or just the prevalent values associated with a key
key_prevalent_values("hazmat")
#> # A tibble: 4 × 3
#>   value        count fraction
#>   <chr>        <int>    <dbl>
#> 1 designated  132362   0.868 
#> 2 no           17605   0.115 
#> 3 destination   1946   0.0128
#> 4 NA             642   0.0042
key_values("hazmat")
#> # A tibble: 24 × 7
#>    value                  count fraction in_wiki description desclang descdir
#>    <chr>                  <int>    <dbl> <lgl>   <chr>       <chr>    <chr>  
#>  1 2                         16   0.0001 FALSE   ""          ""       ""     
#>  2 2.1,2.2,3,4.1,5.1,6,8      1   0      FALSE   ""          ""       ""     
#>  3 3                          5   0      FALSE   ""          ""       ""     
#>  4 5.1                        1   0      FALSE   ""          ""       ""     
#>  5 7                          9   0.0001 FALSE   ""          ""       ""     
#>  6 E                         14   0.0001 FALSE   ""          ""       ""     
#>  7 Propane#1978               1   0      FALSE   ""          ""       ""     
#>  8 delivery                  94   0.0006 FALSE   ""          ""       ""     
#>  9 desginated                 4   0      FALSE   ""          ""       ""     
#> 10 designated            132362   0.868  FALSE   ""          ""       ""     
#> # ℹ 14 more rows

# Retrieve JOSM projects on amenities
key_projects("amenity", query = "josm")
#> # A tibble: 903 × 12
#>    project_id           project_name project_icon_url key   value on_node on_way
#>    <chr>                <chr>        <chr>            <chr> <chr> <lgl>   <lgl> 
#>  1 josm_main_mappaint_… JOSM main m… https://josm.op… amen… anim… TRUE    FALSE 
#>  2 josm_main_mappaint_… JOSM main m… https://josm.op… amen… anim… TRUE    FALSE 
#>  3 josm_main_mappaint_… JOSM main m… https://josm.op… amen… anim… TRUE    FALSE 
#>  4 josm_main_mappaint_… JOSM main m… https://josm.op… amen… arts… TRUE    FALSE 
#>  5 josm_main_mappaint_… JOSM main m… https://josm.op… amen… atm   TRUE    FALSE 
#>  6 josm_main_mappaint_… JOSM main m… https://josm.op… amen… baby… TRUE    FALSE 
#>  7 josm_main_mappaint_… JOSM main m… https://josm.op… amen… bank  TRUE    FALSE 
#>  8 josm_main_mappaint_… JOSM main m… https://josm.op… amen… bar   TRUE    FALSE 
#>  9 josm_main_mappaint_… JOSM main m… https://josm.op… amen… bbq   TRUE    FALSE 
#> 10 josm_main_mappaint_… JOSM main m… https://josm.op… amen… bench TRUE    TRUE  
#> # ℹ 893 more rows
#> # ℹ 5 more variables: on_relation <lgl>, on_area <lgl>, description <chr>,
#> #   doc_url <lgl>, icon_url <chr>

# Retrieve number of keys for each geometry type
key_stats("amenity")
#> # A tibble: 4 × 4
#>   type         count count_fraction values
#>   <chr>        <int>          <dbl>  <int>
#> 1 all       28601224         0.0027   8841
#> 2 nodes     15185244         0.0603   6173
#> 3 ways      13249405         0.0124   4077
#> 4 relations   166575         0.013     431

# Retrieve wiki pages on a key
key_wiki_pages("amenity")
#> # A tibble: 27 × 15
#>    lang  dir   language language_en title description image$title on_node on_way
#>    <chr> <chr> <chr>    <chr>       <chr> <chr>       <chr>       <lgl>   <lgl> 
#>  1 ca    ltr   Català   Catalan     Ca:K… "Per a des… File:Mappi… TRUE    FALSE 
#>  2 cs    ltr   Čeština  Czech       Cs:K… "Pro zakre… File:Mappi… TRUE    FALSE 
#>  3 da    ltr   Dansk    Danish      Da:K… ""          NA          FALSE   FALSE 
#>  4 de    ltr   Deutsch  German      DE:K… "Zur Marki… File:Mappi… TRUE    FALSE 
#>  5 el    auto  Ελληνικά Greek       El:K… "Για την π… File:Mappi… TRUE    FALSE 
#>  6 en    ltr   English  English     Key:… "For descr… File:Mappi… TRUE    FALSE 
#>  7 es    ltr   Español  Spanish     ES:K… "Para desc… File:Mappi… TRUE    FALSE 
#>  8 et    auto  Eesti    Estonian    Et:K… ""          File:Mappi… TRUE    FALSE 
#>  9 fi    ltr   Suomi    Finish      Fi:K… "Matkailij… File:Mappi… TRUE    FALSE 
#> 10 fr    ltr   Français French      FR:K… "Pour marq… File:Mappi… TRUE    FALSE 
#> # ℹ 17 more rows
#> # ℹ 12 more variables: image$width <int>, $height <int>, $mime <chr>,
#> #   $image_url <chr>, $thumb_url_prefix <chr>, $thumb_url_suffix <chr>,
#> #   on_area <lgl>, on_relation <lgl>, tags_implies <list>,
#> #   tags_combination <list>, tags_linked <list>, status <chr>
…
