Tags — tag_chronology • osmtags
…
# Only retrieve number of hospitals that are explicitly buildings
tag_combinations("amenity", "hospital", query = "building")
#> # A tibble: 4 × 5
#>   other_key       other_value together_count to_fraction from_fraction
#>   <chr>           <chr>                <int>       <dbl>         <dbl>
#> 1 building:levels ""                    3759      0.0178        0.0001
#> 2 building        "hospital"            6146      0.0292        0.0411
#> 3 building        "yes"                12783      0.0606        0     
#> 4 building        ""                   19530      0.0927        0     

# Only retrieve combinations for hospitals that are mapped as relations
tag_combinations("amenity", "hospital", filter = "relations")
#> # A tibble: 89 × 5
#>    other_key    other_value             together_count to_fraction from_fraction
#>    <chr>        <chr>                            <int>       <dbl>         <dbl>
#>  1 addr:state   "Telangana"                          1      0.0002        1     
#>  2 name:ko-Latn ""                                   1      0.0002        0.0013
#>  3 ncat         ""                                   1      0.0002        0.025 
#>  4 source       "http://kr.open.gugi.y…              1      0.0002        0.167 
#>  5 source       "Local Knowledge"                    3      0.0007        0.15  
#>  6 addr:block   ""                                   4      0.001         0.0147
#>  7 addr:state   "Tamil Nadu"                         6      0.0014        0.857 
#>  8 name:ko      ""                                   9      0.0022        0.0005
#>  9 source       "KSJ2"                              15      0.0036        0.014 
#> 10 source:date  ""                                  17      0.0041        0.0001
#> # ℹ 79 more rows
…
