OSM wiki — wiki_data • osmtags
…
    Value

    wiki_data returns a dataframe containing the keys and their
descriptions, relation types, and values. wiki_languages returns a
dataframe containing the native and english names as well as the number of
key pages and the number of tag pages. ietf_languages returns a
dataframe containing the defined languages as well as their type, description,
time added and additional notes.

    Examples

# Query languages
wiki_languages()
#> # A tibble: 75 × 8
#>    code  dir   native_name    english_name wiki_key_pages wiki_key_pages_fract…¹
#>    <chr> <chr> <chr>          <chr>                 <int>                  <dbl>
#>  1 af    ltr   Afrikaans      Afrikaans                 0               0       
#>  2 ar    auto  العربية        Arabic                    5               0.000875
#>  3 az    ltr   Azərbaycan di… Azerbaijani               0               0       
#>  4 bg    ltr   Български език Bulgarian                 4               0.000700
#>  5 bn    auto  বাংলা          Bengali                   0               0       
#>  6 br    auto  NA             NA                        1               0.000175
#>  7 bs    auto  NA             NA                        0               0       
#>  8 ca    ltr   Català         Catalan                  21               0.00367 
#>  9 cnr   auto  NA             NA                        1               0.000175
#> 10 cs    ltr   Čeština        Czech                   818               0.143   
#> # ℹ 65 more rows
#> # ℹ abbreviated name: ¹​wiki_key_pages_fraction
#> # ℹ 2 more variables: wiki_tag_pages <int>, wiki_tag_pages_fraction <dbl>
…
